%YAML 1.1
%TAG !u! tag:unity3d.com,2011:
--- !u!221 &22100000
AnimatorOverrideController:
  m_ObjectHideFlags: 0
  m_CorrespondingSourceObject: {fileID: 0}
  m_PrefabInstance: {fileID: 0}
  m_PrefabAsset: {fileID: 0}
  m_Name: Bubble-K
  m_Controller: {fileID: 9100000, guid: 149034d0eca52554aac80b5f72de44c5, type: 2}
  m_Clips:
  - m_OriginalClip: {fileID: 7400000, guid: b1f1e6da371b3b744a74bf23e1fa8bd1, type: 2}
    m_OverrideClip: {fileID: 7400000, guid: 3a05928ec417592438362ae391ccbc8d, type: 2}
