%YAML 1.1
%TAG !u! tag:unity3d.com,2011:
--- !u!1045 &1
EditorBuildSettings:
  m_ObjectHideFlags: 0
  serializedVersion: 2
  m_Scenes:
  - enabled: 1
    path: Assets/Scenes/MainMenu.unity
    guid: 7875122079467f54bacf4f47725d4278
  - enabled: 1
    path: Assets/Scenes/MainGame.unity
    guid: 2cda990e2423bbf4892e6590ba056729
  - enabled: 1
    path: Assets/Scenes/PermanentObjectScene.unity
    guid: 7e5bbbe6bac9fb146a978a9368433338
  m_configObjects: {}
