%YAML 1.1
%TAG !u! tag:unity3d.com,2011:
--- !u!29 &1
OcclusionCullingSettings:
  m_ObjectHideFlags: 0
  serializedVersion: 2
  m_OcclusionBakeSettings:
    smallestOccluder: 5
    smallestHole: 0.25
    backfaceThreshold: 100
  m_SceneGUID: 00000000000000000000000000000000
  m_OcclusionCullingData: {fileID: 0}
--- !u!104 &2
RenderSettings:
  m_ObjectHideFlags: 0
  serializedVersion: 9
  m_Fog: 0
  m_FogColor: {r: 0.5, g: 0.5, b: 0.5, a: 1}
  m_FogMode: 3
  m_FogDensity: 0.01
  m_LinearFogStart: 0
  m_LinearFogEnd: 300
  m_AmbientSkyColor: {r: 0.212, g: 0.227, b: 0.259, a: 1}
  m_AmbientEquatorColor: {r: 0.114, g: 0.125, b: 0.133, a: 1}
  m_AmbientGroundColor: {r: 0.047, g: 0.043, b: 0.035, a: 1}
  m_AmbientIntensity: 1
  m_AmbientMode: 3
  m_SubtractiveShadowColor: {r: 0.42, g: 0.478, b: 0.627, a: 1}
  m_SkyboxMaterial: {fileID: 0}
  m_HaloStrength: 0.5
  m_FlareStrength: 1
  m_FlareFadeSpeed: 3
  m_HaloTexture: {fileID: 0}
  m_SpotCookie: {fileID: 10001, guid: 0000000000000000e000000000000000, type: 0}
  m_DefaultReflectionMode: 0
  m_DefaultReflectionResolution: 128
  m_ReflectionBounces: 1
  m_ReflectionIntensity: 1
  m_CustomReflection: {fileID: 0}
  m_Sun: {fileID: 0}
  m_IndirectSpecularColor: {r: 0, g: 0, b: 0, a: 1}
  m_UseRadianceAmbientProbe: 0
--- !u!157 &3
LightmapSettings:
  m_ObjectHideFlags: 0
  serializedVersion: 12
  m_GIWorkflowMode: 1
  m_GISettings:
    serializedVersion: 2
    m_BounceScale: 1
    m_IndirectOutputScale: 1
    m_AlbedoBoost: 1
    m_EnvironmentLightingMode: 0
    m_EnableBakedLightmaps: 0
    m_EnableRealtimeLightmaps: 0
  m_LightmapEditorSettings:
    serializedVersion: 12
    m_Resolution: 2
    m_BakeResolution: 40
    m_AtlasSize: 1024
    m_AO: 0
    m_AOMaxDistance: 1
    m_CompAOExponent: 1
    m_CompAOExponentDirect: 0
    m_ExtractAmbientOcclusion: 0
    m_Padding: 2
    m_LightmapParameters: {fileID: 0}
    m_LightmapsBakeMode: 1
    m_TextureCompression: 1
    m_FinalGather: 0
    m_FinalGatherFiltering: 1
    m_FinalGatherRayCount: 256
    m_ReflectionCompression: 2
    m_MixedBakeMode: 2
    m_BakeBackend: 1
    m_PVRSampling: 1
    m_PVRDirectSampleCount: 32
    m_PVRSampleCount: 512
    m_PVRBounces: 2
    m_PVREnvironmentSampleCount: 256
    m_PVREnvironmentReferencePointCount: 2048
    m_PVRFilteringMode: 1
    m_PVRDenoiserTypeDirect: 1
    m_PVRDenoiserTypeIndirect: 1
    m_PVRDenoiserTypeAO: 1
    m_PVRFilterTypeDirect: 0
    m_PVRFilterTypeIndirect: 0
    m_PVRFilterTypeAO: 0
    m_PVREnvironmentMIS: 1
    m_PVRCulling: 1
    m_PVRFilteringGaussRadiusDirect: 1
    m_PVRFilteringGaussRadiusIndirect: 5
    m_PVRFilteringGaussRadiusAO: 2
    m_PVRFilteringAtrousPositionSigmaDirect: 0.5
    m_PVRFilteringAtrousPositionSigmaIndirect: 2
    m_PVRFilteringAtrousPositionSigmaAO: 1
    m_ExportTrainingData: 0
    m_TrainingDataDestination: TrainingData
    m_LightProbeSampleCountMultiplier: 4
  m_LightingDataAsset: {fileID: 0}
  m_LightingSettings: {fileID: 0}
--- !u!196 &4
NavMeshSettings:
  serializedVersion: 2
  m_ObjectHideFlags: 0
  m_BuildSettings:
    serializedVersion: 2
    agentTypeID: 0
    agentRadius: 0.5
    agentHeight: 2
    agentSlope: 45
    agentClimb: 0.4
    ledgeDropHeight: 0
    maxJumpAcrossDistance: 0
    minRegionArea: 2
    manualCellSize: 0
    cellSize: 0.16666667
    manualTileSize: 0
    tileSize: 256
    accuratePlacement: 0
    maxJobWorkers: 0
    preserveTilesOutsideBounds: 0
    debug:
      m_Flags: 0
  m_NavMeshData: {fileID: 0}
--- !u!1 &642346155
GameObject:
  m_ObjectHideFlags: 0
  m_CorrespondingSourceObject: {fileID: 0}
  m_PrefabInstance: {fileID: 0}
  m_PrefabAsset: {fileID: 0}
  serializedVersion: 6
  m_Component:
  - component: {fileID: 642346157}
  - component: {fileID: 642346156}
  m_Layer: 0
  m_Name: WordManager
  m_TagString: Untagged
  m_Icon: {fileID: 0}
  m_NavMeshLayer: 0
  m_StaticEditorFlags: 0
  m_IsActive: 1
--- !u!114 &642346156
MonoBehaviour:
  m_ObjectHideFlags: 0
  m_CorrespondingSourceObject: {fileID: 0}
  m_PrefabInstance: {fileID: 0}
  m_PrefabAsset: {fileID: 0}
  m_GameObject: {fileID: 642346155}
  m_Enabled: 1
  m_EditorHideFlags: 0
  m_Script: {fileID: 11500000, guid: d725289b75c0361428a1663b6fb038cb, type: 3}
  m_Name: 
  m_EditorClassIdentifier: 
  wordList: {fileID: 4900000, guid: 0b1233d74003ce24cb7b6e26ca0557fc, type: 3}
  Easy: []
  Average: []
  Hard: []
  EasyWords: []
  AveWords: []
  HardWords: []
  Words:
  - {fileID: 5401525558489000078, guid: ef5501571a5d544458fb6803d6f8ecf6, type: 3}
  - {fileID: 6239504643448626079, guid: d8622ba92b32bbc428d491670172fae3, type: 3}
  - {fileID: 5826210960701512007, guid: f5349386ea4bf69479ca64576ff29cea, type: 3}
  - {fileID: 3798365199587160554, guid: cdc4eaa0cd0249a47800280199618763, type: 3}
  - {fileID: 4154937404826577281, guid: 06b4ce67a73178746a69d027461cbf98, type: 3}
  - {fileID: 8186771655677335988, guid: 65402c9c333b6264d80319ec5ffc2c46, type: 3}
  - {fileID: 1672253398083652421, guid: b41aecfd2efc4884596da9a1ee5ba538, type: 3}
  - {fileID: 3243391220941320935, guid: 728c557e124c5804ebdd8a1947c70933, type: 3}
  - {fileID: 1720157575020694071, guid: 3c14eab7f1016e542966721d46ac0735, type: 3}
  - {fileID: 561499132173792726, guid: da3f125c95607784a91fe291029b738a, type: 3}
  - {fileID: 1659935701864579403, guid: 89b0526a9ce18ee488323bd79570e6ee, type: 3}
  - {fileID: 1042330144957477662, guid: f572fbfe15f71104e9fa679eb74dfe47, type: 3}
  - {fileID: 4155211472983101535, guid: 66da1c0ca07544a4f883b784f21dc590, type: 3}
  - {fileID: 9099513862797628829, guid: d1d0f8518be29ce4d803afbcbc40d19d, type: 3}
  - {fileID: 7446741902888440683, guid: f28d0a7f1533be24599a8c2647381bc7, type: 3}
  - {fileID: 3677502465900195941, guid: df69bb2950ce78748953f11f3729969b, type: 3}
  - {fileID: 6429725016110672165, guid: e16bf5133e2ff2441a4bb5daa1f4a644, type: 3}
  - {fileID: 5358323975774915420, guid: a822b065e1bbc3347b2fed3de9843fa0, type: 3}
  EWords:
  - {fileID: 1659935701864579403, guid: 89b0526a9ce18ee488323bd79570e6ee, type: 3}
  - {fileID: 8186771655677335988, guid: 65402c9c333b6264d80319ec5ffc2c46, type: 3}
  - {fileID: 3243391220941320935, guid: 728c557e124c5804ebdd8a1947c70933, type: 3}
  - {fileID: 6239504643448626079, guid: d8622ba92b32bbc428d491670172fae3, type: 3}
  - {fileID: 4155211472983101535, guid: 66da1c0ca07544a4f883b784f21dc590, type: 3}
  - {fileID: 9099513862797628829, guid: d1d0f8518be29ce4d803afbcbc40d19d, type: 3}
  - {fileID: 501749256870124548, guid: fb154a8cea724d44e91fa09e2f3c6287, type: 3}
  MWords:
  - {fileID: 7446741902888440683, guid: f28d0a7f1533be24599a8c2647381bc7, type: 3}
  - {fileID: 1042330144957477662, guid: f572fbfe15f71104e9fa679eb74dfe47, type: 3}
  - {fileID: 1720157575020694071, guid: 3c14eab7f1016e542966721d46ac0735, type: 3}
  - {fileID: 5358323975774915420, guid: a822b065e1bbc3347b2fed3de9843fa0, type: 3}
  - {fileID: 5826210960701512007, guid: f5349386ea4bf69479ca64576ff29cea, type: 3}
  - {fileID: 4154937404826577281, guid: 06b4ce67a73178746a69d027461cbf98, type: 3}
  - {fileID: 1672253398083652421, guid: b41aecfd2efc4884596da9a1ee5ba538, type: 3}
  HWords:
  - {fileID: 561499132173792726, guid: da3f125c95607784a91fe291029b738a, type: 3}
  - {fileID: 3677502465900195941, guid: df69bb2950ce78748953f11f3729969b, type: 3}
  - {fileID: 6429725016110672165, guid: e16bf5133e2ff2441a4bb5daa1f4a644, type: 3}
  - {fileID: 7548982647178953579, guid: 76d3699192105334f9a5ee32e2008203, type: 3}
  - {fileID: 3798365199587160554, guid: cdc4eaa0cd0249a47800280199618763, type: 3}
  WordNumber: 0
  GameDifficulty: 0
--- !u!4 &642346157
Transform:
  m_ObjectHideFlags: 0
  m_CorrespondingSourceObject: {fileID: 0}
  m_PrefabInstance: {fileID: 0}
  m_PrefabAsset: {fileID: 0}
  m_GameObject: {fileID: 642346155}
  m_LocalRotation: {x: 0, y: 0, z: 0, w: 1}
  m_LocalPosition: {x: 0, y: 0, z: 0}
  m_LocalScale: {x: 1, y: 1, z: 1}
  m_Children: []
  m_Father: {fileID: 0}
  m_RootOrder: 0
  m_LocalEulerAnglesHint: {x: 0, y: 0, z: 0}
